<?xml version="1.0" encoding="utf-8"?>
<COLLADA xmlns="http://www.collada.org/2005/11/COLLADASchema" version="1.4.1">
  <asset>
    <contributor>
      <author>Blender User</author>
      <authoring_tool>Blender 2.69.0 r60995</authoring_tool>
    </contributor>
    <created>2015-02-03T22:41:03</created>
    <modified>2015-02-03T22:41:03</modified>
    <unit name="meter" meter="1"/>
    <up_axis>Z_UP</up_axis>
  </asset>
  <library_images/>
  <library_geometries>
    <geometry id="OlympicTorch-mesh" name="OlympicTorch">
      <mesh>
        <source id="OlympicTorch-mesh-positions">
          <float_array id="OlympicTorch-mesh-positions-array" count="285">0 -1.000001 1.566835 0.5406408 -0.8412548 1.566835 0.909632 -0.4154163 1.566836 0.9898214 0.1423137 1.566836 0.7557495 0.6548596 1.566837 0 1.27952e-6 0.8196294 0.2817324 0.9594917 1.566837 -0.2817327 0.9594916 1.566837 -0.7557498 0.6548593 1.566837 -0.9898215 0.1423133 1.566836 -0.909632 -0.4154164 1.566836 -0.5406409 -0.8412548 1.566835 0.5901864 -0.269524 0.9839401 1.38329e-5 -0.6521733 0.9906764 0.35152 -0.5469557 0.9866643 0.491694 0.4260421 0.9875062 0.1834484 0.6247201 0.9885247 0.6431317 0.0924651 0.9857959 -0.6423814 0.09236091 0.9843356 -0.4909487 0.4254199 0.9856064 -0.5900754 -0.2694861 0.9837571 -0.1832299 0.6240692 0.987168 -0.3515515 -0.5470476 0.9868828 0.8299428 -0.3790254 1.269896 0.4937136 -0.7682432 1.271519 -0.4937608 -0.7682979 1.271649 0.6903426 0.5981901 1.272021 -0.8299051 -0.3790029 1.269788 -0.903236 0.129864 1.270132 -0.6899273 0.5978193 1.270889 -0.2573298 0.8763632 1.27182 0.2574313 0.876751 1.272628 0.9036545 0.1299263 1.271002 -5.97104e-6 -0.9144071 1.273908 -9.27148e-4 0.002430915 0.9251709 -0.4773104 -0.2170921 1.062952 -0.2844765 -0.4415184 1.062951 0.3992729 0.3469409 1.062952 0.520219 0.07560926 1.062952 0.2815083 -0.4376061 1.062951 0.4702095 -0.2140442 1.062952 -0.1466124 0.4993136 1.062952 -0.3934956 0.3415569 1.062952 0.145632 0.4975803 1.062952 -0.5130554 0.07453107 1.062952 -2.3357e-4 -0.5194019 1.062951 0.4453415 -0.6927767 1.566835 -0.232028 0.7902984 1.566837 0.2317642 0.7897889 1.566837 -5.63166e-5 -0.8232837 1.566835 -0.4461893 -0.6939265 1.566835 0.6242204 0.5412072 1.566837 0.8167525 0.1177114 1.566836 0.7482737 -0.3414728 1.566836 -0.622498 0.5396245 1.566837 -0.8146224 0.1173942 1.566836 -0.750336 -0.3423687 1.566836 0.4054605 -0.630616 1.314893 -0.2112321 0.7193818 1.314895 0.2105496 0.7181787 1.314895 -1.63046e-4 -0.7490715 1.314893 -0.4075226 -0.6333314 1.314893 0.5707815 0.4952547 1.314895 0.745679 0.1077733 1.314894 0.6798099 -0.3099817 1.314894 -0.5667735 0.4915176 1.314895 -0.7407088 0.1070247 1.314894 -0.6847404 -0.3120973 1.314894 -0.5109382 0.07346242 0.9506337 0.3989962 0.3457218 0.9558568 -0.3927486 0.3403272 0.9524075 0.1468121 0.4999581 0.9547948 0.4681419 -0.2137889 0.9499624 1.10855e-5 -0.5226448 0.9567048 -0.4755568 -0.2171854 0.9519041 0.5252882 0.0755226 0.9553486 -0.2824798 -0.4395651 0.9540215 -0.1459364 0.4970501 0.9530682 0.2809628 -0.4371702 0.953137 0.5940189 -0.283476 0.00507462 0.3553526 -0.5609077 0.007798731 0.4919243 0.4340417 0.008640646 0.6433621 0.1004648 0.006930351 -0.6421511 0.1003606 0.005470037 -0.4907184 0.4334195 0.006740927 -0.5943848 -0.2834381 0.004891574 -0.3558609 -0.5609996 0.008017301 -0.5107079 0.08146208 0.004572093 0.3992266 0.3537214 0.009795367 -0.3925183 0.3483268 0.006346046 0.4719744 -0.227741 0.003900945 -0.4798662 -0.2311375 0.005842626 0.5255185 0.0835222 0.009287059 -0.2867892 -0.4535171 0.007959961 0.2847954 -0.4511222 0.007075548</float_array>
          <technique_common>
            <accessor source="#OlympicTorch-mesh-positions-array" count="95" stride="3">
              <param name="X" type="float"/>
              <param name="Y" type="float"/>
              <param name="Z" type="float"/>
            </accessor>
          </technique_common>
        </source>
        <source id="OlympicTorch-mesh-normals">
          <float_array id="OlympicTorch-mesh-normals-array" count="558">0.9143442 -0.4049252 -0.003201305 0.0647608 -0.2531573 -0.9652552 -0.2529338 -0.03501659 -0.9668498 -0.6560479 0.7546936 0.006221771 -0.1366262 0.2192355 -0.9660585 0.003110945 0.2601312 -0.9655683 0.138787 0.2202759 -0.9655137 -0.9059236 -0.4234243 -0.003800868 0.2543696 -0.03224956 -0.9665692 -0.06528246 -0.2531513 -0.9652215 0.7551009 0.6554776 -0.0131061 0.4058501 -0.6351401 0.6571779 0.2072914 -0.7178523 -0.6646191 0.5639635 -0.4916762 -0.6634755 0.6808425 0.3115919 -0.6628454 0.741628 -0.1059716 -0.662388 0.4042856 0.6297453 -0.6633054 -0.4034036 0.6301103 -0.6634958 0.001128256 0.7479231 -0.6637845 -0.7413255 -0.1061011 -0.6627058 -0.6804534 0.3119135 -0.6630935 -0.5654993 -0.4914576 -0.6623292 -0.2096223 -0.71864 -0.6630346 0.2721326 -0.9236346 -0.2698945 0.7277848 -0.6298342 -0.2713636 0.8754087 0.3997862 -0.2717181 0.9523974 -0.1369336 -0.2723755 0.5203939 0.8097492 -0.2711025 -0.5206724 0.809545 -0.2711774 -3.00181e-4 0.9626623 -0.2707054 -0.952431 -0.137067 -0.2721912 -0.8755216 0.39953 -0.2717311 -0.7271683 -0.6300947 -0.2724097 -0.2711652 -0.9235033 -0.2713137 -0.5704943 0.4881403 0.6604964 0 -1.40446e-6 1 -0.2109526 0.7223573 0.6585581 0.2054988 0.7232734 0.6592767 0 -1.01092e-6 1 -4.59057e-7 -1.61614e-6 1 -0.7411499 0.1168593 0.6610907 0.6851935 -0.3099657 0.6591137 0.7446352 0.09943574 0.6600233 0.5712568 0.4929808 0.6562282 -0.07388538 0.2544934 0.9642479 -0.135514 -0.2281742 0.9641434 -0.2612537 0.04510504 0.9642158 0.2639063 0.03234642 0.9640058 0.1438081 -0.2250548 0.963675 -0.001587331 -0.2676409 0.9635174 0.06980186 0.254747 0.9644852 -0.2400599 -0.107008 0.9648423 0.24388 -0.1091976 0.9636382 0.1998655 0.1717289 0.9646569 -0.203139 0.1714614 0.9640206 0 -9.98966e-7 1 -4.59115e-7 -1.00188e-6 1 -0.002743422 -0.9618351 0.2736159 0 -1.58928e-6 1 0 -1.59984e-6 1 -0.5084497 -0.8216248 0.2577046 -0.879198 -0.396844 0.2636776 -5.17062e-7 -1.2081e-6 1 4.50483e-7 -1.61664e-6 1 5.08413e-7 -1.20934e-6 1 4.59337e-7 -1.00168e-6 1 0.5195885 -0.8107256 0.2697255 -0.7278523 0.6276327 0.2762394 -0.2705785 0.9234374 0.2721225 0.2686004 0.9263612 0.2640243 -0.9540972 0.1422855 0.2635403 0.8763893 -0.3964576 0.2734282 0.9524776 0.1331798 0.2739517 0.7290948 0.6307688 0.2656154 -0.002145171 -0.7520809 0.6590673 -0.3883543 -0.6538968 0.6493074 -0.6882628 -0.3106621 0.6555785 0.06476098 -0.2531579 -0.965255 -0.2321153 0.1092244 -0.9665364 0.003110885 0.2601318 -0.9655681 0.2336183 0.1110109 -0.9659705 -0.06528258 -0.2531518 -0.9652214 -0.1894697 -0.1737052 -0.9663993 -0.2529341 -0.03501641 -0.9668496 -0.1366263 0.2192357 -0.9660585 0.138787 0.2202758 -0.9655137 0.2543698 -0.03224956 -0.9665692 0.1900544 -0.1729876 -0.9664133 0.009656727 -0.002962231 -0.9999489 0.001256644 0.006090581 -0.9999807 -0.01946175 -0.003709077 -0.9998037 -0.005148887 -0.009896278 -0.9999377 -0.8418674 -0.5396653 0.004548192 -0.766511 0.6421081 -0.01257467 0.910561 0.4133593 0.003592312 0.8418303 -0.5397266 0.004124939 -0.4180421 0.908355 -0.01149171 0.7580863 -0.6520391 0.0122618 0.4180756 0.9083368 -0.011702 0.656117 0.7546309 0.006540656 -0.1444188 -0.989481 -0.00840187 -0.7584366 -0.6516245 0.01262664 -0.9103229 0.4138867 0.003168225 0.1444119 -0.9894827 -0.008331596 0.9143442 -0.4049251 -0.003201305 0.06476122 -0.2531577 -0.965255 -0.2529344 -0.03501641 -0.9668496 -0.6547933 0.7557841 0.006022453 -0.136626 0.2192354 -0.9660586 0.003110826 0.2601315 -0.9655682 0.1387869 0.2202754 -0.9655138 -0.9059236 -0.4234243 -0.003800868 0.2543696 -0.03224951 -0.9665693 -0.06528246 -0.2531512 -0.9652216 0.7551009 0.6554777 -0.01310616 0.4063199 -0.6339907 0.657997 0.2095692 -0.7187297 -0.6629541 0.5655776 -0.4913395 -0.6623499 0.67993 0.3120777 -0.6635532 0.7410823 -0.1049928 -0.6631543 0.4036725 0.6296937 -0.6637277 -0.4043442 0.6301874 -0.6628496 4.77307e-4 0.7484227 -0.6632218 -0.7414953 -0.1064054 -0.662467 -0.6811295 0.3115525 -0.6625689 -0.5636454 -0.491845 -0.6636207 -0.2074695 -0.71781 -0.664609 0.2711582 -0.9234795 -0.2714018 0.7271764 -0.6301015 -0.2723724 0.8757287 0.3995175 -0.2710812 0.9525312 -0.1373654 -0.2716895 0.520641 0.8097178 -0.2707213 -0.5202941 0.8095934 -0.2717583 -2.03635e-7 0.9625193 -0.2712131 -0.9523893 -0.1369327 -0.2724043 -0.8752846 0.3997291 -0.2722011 -0.727867 -0.6297876 -0.2712515 -0.2720865 -0.92365 -0.2698879 -0.5764966 0.4866006 0.6564081 0 -1.40915e-6 1 -0.2100461 0.7234933 0.6576001 0.2000299 0.7300269 0.6534897 -1.24807e-7 -1.36817e-6 1 0 -1.13065e-6 1 -0.7470868 0.128986 0.652092 0.6882458 -0.3081602 0.6567763 0.7514059 0.09210079 0.6533809 0.5731905 0.4925015 0.6549007 1.2714e-7 -1.3718e-6 1 3.90751e-7 -1.35495e-6 1 -0.001057326 -0.9626156 0.2708693 -1.39963e-7 -1.34919e-6 1 1.43236e-7 -1.3491e-6 1 -0.514577 -0.8124051 0.2742415 -0.8791819 -0.399699 0.2593836 -5.5679e-7 -1.21502e-6 1 0 -1.12655e-6 1 5.58673e-7 -1.2183e-6 1 -3.99018e-7 -1.36247e-6 1 0.5200291 -0.8100399 0.2709339 -0.7315486 0.6259462 0.2702372 -0.2698576 0.924064 0.2707076 0.2629618 0.925521 0.2725102 -0.9492413 0.1496703 0.2766583 0.8764013 -0.3987829 0.2699871 0.9559724 0.1276576 0.2642352 0.7302826 0.6302171 0.2636546 -0.004470169 -0.7537019 0.6572011 -0.3950142 -0.6383204 0.6606897 -0.6920078 -0.3084635 0.6526679 0.005948364 -0.004356443 -0.9999728 -0.005896747 0.006496787 -0.9999615 -0.01002585 -0.002804994 -0.9999458 0.003684878 -0.01298815 -0.9999089 -0.84125 -0.5406282 0.004411935 -0.766511 0.6421082 -0.01257461 0.9105609 0.4133593 0.003592312 0.8412587 -0.5406181 0.004001975 -0.4153239 0.9096054 -0.01113635 0.7580863 -0.6520391 0.0122618 0.4154735 0.9095345 -0.01133704 0.6548704 0.7557148 0.006330013 -0.1423633 -0.9897812 -0.008122324 -0.7584367 -0.6516245 0.0126267 -0.9103229 0.4138866 0.003168225 0.1421457 -0.989813 -0.008055627</float_array>
          <technique_common>
            <accessor source="#OlympicTorch-mesh-normals-array" count="186" stride="3">
              <param name="X" type="float"/>
              <param name="Y" type="float"/>
              <param name="Z" type="float"/>
            </accessor>
          </technique_common>
        </source>
        <source id="OlympicTorch-mesh-map-0">
          <float_array id="OlympicTorch-mesh-map-0-array" count="1116">0.8406585 0.5951443 0.946292 0.6010198 0.8513025 0.8511061 0.7308034 0.3871903 0.7302424 0.3625873 0.7791465 0.3453413 0.6154237 0.2566496 0.6392043 0.2593335 0.6266048 0.3189474 0.9370228 0.5985654 0.9761599 0.5938554 0.9048375 0.86355 0.6930469 0.1606594 0.7005181 0.1837173 0.6582763 0.2124003 0.7583552 0.1580109 0.751933 0.1814205 0.7005181 0.1837173 0.8136801 0.192971 0.796655 0.2080205 0.751933 0.1814205 0.8250443 0.5953064 0.9370228 0.5985654 0.9048375 0.86355 0.8315739 0.3143657 0.8098238 0.30515 0.8406878 0.2516538 0.6676701 0.3678649 0.6803135 0.3480105 0.7308034 0.3871903 0.8314294 0.5960351 0.9400616 0.5987868 0.9083282 0.8589368 0.2730342 0.8606146 0.2947847 0.784172 0.3579095 0.7813051 0.7325323 0.462589 0.7308034 0.3871903 0.7929192 0.3649665 0.8338432 0.4278574 0.7929192 0.3649665 0.8315739 0.3143657 0.9139277 0.2368442 0.8406878 0.2516538 0.8665467 0.1417108 0.9003201 0.3433287 0.8315739 0.3143657 0.9139277 0.2368442 0.8665467 0.1417108 0.8136801 0.192971 0.7775782 0.08653974 0.6732484 0.08993244 0.6930469 0.1606594 0.6399964 0.1973572 0.7775782 0.08653974 0.7583552 0.1580109 0.6930469 0.1606594 0.5410682 0.2447415 0.6154237 0.2566496 0.6266048 0.3189474 0.584976 0.1474797 0.6399964 0.1973572 0.6154237 0.2566496 0.5590525 0.3509335 0.6266048 0.3189474 0.629559 0.4326596 0.629559 0.4326596 0.6676701 0.3678649 0.7325323 0.462589 0.7342243 0.5335553 0.7325323 0.462589 0.8338432 0.4278574 0.8745465 0.4919292 0.8338432 0.4278574 0.9003201 0.3433287 0.9886865 0.2204039 0.9139277 0.2368442 0.918239 0.09013676 0.9757223 0.3749749 0.9003201 0.3433287 0.9886865 0.2204039 0.918239 0.09013676 0.8665467 0.1417108 0.7953203 0.02002859 0.6545413 0.02002865 0.6732484 0.08993244 0.584976 0.1474797 0.7953203 0.02002859 0.7775782 0.08653974 0.6732484 0.08993244 0.4647161 0.2312422 0.5410682 0.2447415 0.5590525 0.3509335 0.5303691 0.096322 0.584976 0.1474797 0.5410682 0.2447415 0.4846811 0.3861371 0.5590525 0.3509335 0.5917975 0.4987414 0.5917975 0.4987414 0.629559 0.4326596 0.7342243 0.5335553 0.3211858 0.486189 0.4224276 0.5165492 0.3807838 0.5836453 0.5332289 0.8472988 0.5777584 0.8837166 0.4056469 0.9382751 0.2205634 0.5193124 0.3211858 0.486189 0.2637602 0.585148 0.1505694 0.5988107 0.2205634 0.5193124 0.2637602 0.585148 0.5913546 0.7054325 0.6463569 0.7113699 0.5332289 0.8472988 0.5621992 0.5581622 0.6109675 0.5337879 0.5913546 0.7054325 0.4224276 0.5165492 0.4950968 0.5944745 0.3807838 0.5836453 0.1821033 0.802074 0.2430365 0.7489184 0.2730342 0.8606146 0.1821033 0.802074 0.1360787 0.703896 0.2430365 0.7489184 0.1360787 0.703896 0.1505694 0.5988107 0.2143452 0.6939214 0.2637602 0.585148 0.3222157 0.5646864 0.3243132 0.6762887 0.3243132 0.6762887 0.436616 0.6893157 0.4083257 0.7453149 0.3807838 0.5836453 0.4241631 0.6272006 0.3243132 0.6762887 0.2430365 0.7489184 0.2143452 0.6939214 0.3243132 0.6762887 0.2947847 0.784172 0.3243132 0.6762887 0.3579095 0.7813051 0.3243132 0.6762887 0.4083257 0.7453149 0.3579095 0.7813051 0.2211756 0.6309794 0.2637602 0.585148 0.3243132 0.6762887 0.3243132 0.6762887 0.4241631 0.6272006 0.436616 0.6893157 0.2430365 0.7489184 0.3243132 0.6762887 0.2947847 0.784172 0.2143452 0.6939214 0.2211756 0.6309794 0.3243132 0.6762887 0.3222157 0.5646864 0.3807838 0.5836453 0.3243132 0.6762887 0.2333443 0.9922327 0.2491289 0.9369726 0.4056469 0.9382751 0.3205433 0.3616636 0.4883826 0.405237 0.4601211 0.4515197 0.4701856 0.7975122 0.5332289 0.8472988 0.3797932 0.8570657 0.1517578 0.4085309 0.3205433 0.3616636 0.3203063 0.4153456 0.03237324 0.5420319 0.1517578 0.4085309 0.08220386 0.5648865 0.5140005 0.698958 0.5913546 0.7054325 0.4701856 0.7975122 0.4950968 0.5944745 0.5621992 0.5581622 0.5140005 0.698958 0.4883826 0.405237 0.6109675 0.5337879 0.5621992 0.5581622 0.07792133 0.8894254 0.1209447 0.8521502 0.2491289 0.9369726 0.07792133 0.8894254 0.003902196 0.7209297 0.1209447 0.8521502 0.003902196 0.7209297 0.03237324 0.5420319 0.05892157 0.7130255 0.2491289 0.9369726 0.2730342 0.8606146 0.3797932 0.8570657 0.3203063 0.4153456 0.4601211 0.4515197 0.4224276 0.5165492 0.1812884 0.4555758 0.3203063 0.4153456 0.2205634 0.5193124 0.08220386 0.5648865 0.1812884 0.4555758 0.1505694 0.5988107 0.4601211 0.4515197 0.5621992 0.5581622 0.4950968 0.5944745 0.1209447 0.8521502 0.1821033 0.802074 0.2730342 0.8606146 0.1209447 0.8521502 0.05892157 0.7130255 0.1821033 0.802074 0.05892157 0.7130255 0.08220386 0.5648865 0.1360787 0.703896 0.4083257 0.7453149 0.4701856 0.7975122 0.3797932 0.8570657 0.436616 0.6893157 0.5140005 0.698958 0.4083257 0.7453149 0.4241631 0.6272006 0.4950968 0.5944745 0.5140005 0.698958 0.7302424 0.3625873 0.7281548 0.2700527 0.7791465 0.3453413 0.6582763 0.2124003 0.7281548 0.2700527 0.6392043 0.2593335 0.751933 0.1814205 0.7281548 0.2700527 0.7005181 0.1837173 0.8192511 0.25503 0.7281548 0.2700527 0.796655 0.2080205 0.6803135 0.3480105 0.7281548 0.2700527 0.7302424 0.3625873 0.6468185 0.3092761 0.7281548 0.2700527 0.6803135 0.3480105 0.6392043 0.2593335 0.7281548 0.2700527 0.6468185 0.3092761 0.7005181 0.1837173 0.7281548 0.2700527 0.6582763 0.2124003 0.796655 0.2080205 0.7281548 0.2700527 0.751933 0.1814205 0.8098238 0.30515 0.7281548 0.2700527 0.8192511 0.25503 0.7791465 0.3453413 0.7281548 0.2700527 0.8098238 0.30515 0.810121 0.8857956 0.8456931 0.8490761 0.9418607 0.8922712 0.8152253 0.8814406 0.8513025 0.8511061 0.912045 0.8456497 0.805864 0.8889923 0.8400896 0.853868 0.9375085 0.8960197 0.8059157 0.8811004 0.8417929 0.8504246 0.9046934 0.8479667 0.7823756 0.5883173 0.822305 0.5946436 0.8417929 0.8504246 0.822305 0.5946436 0.9294395 0.59417 0.9046934 0.8479667 0.6753353 0.5952158 0.7878908 0.5881883 0.6933081 0.8960197 0.9400616 0.5987868 0.9802959 0.5943813 0.9083282 0.8589368 0.7926222 0.5890145 0.8314294 0.5960351 0.8456931 0.8490761 0.6729158 0.5970289 0.7823756 0.5883173 0.8059157 0.8811004 0.9294395 0.59417 0.9722852 0.5883173 0.9046934 0.8479667 0.8010867 0.5872486 0.8406585 0.5951443 0.8513025 0.8511061 0.946292 0.6010198 0.9870038 0.5967009 0.912045 0.8456497 0.6816685 0.5954899 0.7926222 0.5890145 0.810121 0.8857956 0.6911095 0.5920861 0.8010867 0.5872486 0.8152253 0.8814406 0.7878908 0.5881883 0.8250443 0.5953064 0.8400896 0.853868 0.946292 0.6010198 0.912045 0.8456497 0.8513025 0.8511061 0.7929192 0.3649665 0.7308034 0.3871903 0.7791465 0.3453413 0.6392043 0.2593335 0.6468185 0.3092761 0.6266048 0.3189474 0.9761599 0.5938554 0.9375085 0.8960197 0.9048375 0.86355 0.6399964 0.1973572 0.6930469 0.1606594 0.6582763 0.2124003 0.6930469 0.1606594 0.7583552 0.1580109 0.7005181 0.1837173 0.7583552 0.1580109 0.8136801 0.192971 0.751933 0.1814205 0.8400896 0.853868 0.8250443 0.5953064 0.9048375 0.86355 0.8098238 0.30515 0.8192511 0.25503 0.8406878 0.2516538 0.6803135 0.3480105 0.7302424 0.3625873 0.7308034 0.3871903 0.8456931 0.8490761 0.8314294 0.5960351 0.9083282 0.8589368 0.3797932 0.8570657 0.2730342 0.8606146 0.3579095 0.7813051 0.8338432 0.4278574 0.7325323 0.462589 0.7929192 0.3649665 0.9003201 0.3433287 0.8338432 0.4278574 0.8315739 0.3143657 0.8406878 0.2516538 0.8136801 0.192971 0.8665467 0.1417108 0.8315739 0.3143657 0.8406878 0.2516538 0.9139277 0.2368442 0.8136801 0.192971 0.7583552 0.1580109 0.7775782 0.08653974 0.584976 0.1474797 0.6732484 0.08993244 0.6399964 0.1973572 0.6732484 0.08993244 0.7775782 0.08653974 0.6930469 0.1606594 0.5590525 0.3509335 0.5410682 0.2447415 0.6266048 0.3189474 0.5410682 0.2447415 0.584976 0.1474797 0.6154237 0.2566496 0.6266048 0.3189474 0.6676701 0.3678649 0.629559 0.4326596 0.6676701 0.3678649 0.7308034 0.3871903 0.7325323 0.462589 0.8745465 0.4919292 0.7342243 0.5335553 0.8338432 0.4278574 0.9757223 0.3749749 0.8745465 0.4919292 0.9003201 0.3433287 0.9139277 0.2368442 0.8665467 0.1417108 0.918239 0.09013676 0.9003201 0.3433287 0.9139277 0.2368442 0.9886865 0.2204039 0.8665467 0.1417108 0.7775782 0.08653974 0.7953203 0.02002859 0.5303691 0.096322 0.6545413 0.02002865 0.584976 0.1474797 0.6545413 0.02002865 0.7953203 0.02002859 0.6732484 0.08993244 0.4846811 0.3861371 0.4647161 0.2312422 0.5590525 0.3509335 0.4647161 0.2312422 0.5303691 0.096322 0.5410682 0.2447415 0.5590525 0.3509335 0.629559 0.4326596 0.5917975 0.4987414 0.629559 0.4326596 0.7325323 0.462589 0.7342243 0.5335553 0.3222157 0.5646864 0.3211858 0.486189 0.3807838 0.5836453 0.5777584 0.8837166 0.4226447 0.9922327 0.4056469 0.9382751 0.3211858 0.486189 0.3222157 0.5646864 0.2637602 0.585148 0.2211756 0.6309794 0.1505694 0.5988107 0.2637602 0.585148 0.6463569 0.7113699 0.5777584 0.8837166 0.5332289 0.8472988 0.6109675 0.5337879 0.6463569 0.7113699 0.5913546 0.7054325 0.4950968 0.5944745 0.4241631 0.6272006 0.3807838 0.5836453 0.2430365 0.7489184 0.2947847 0.784172 0.2730342 0.8606146 0.1360787 0.703896 0.2143452 0.6939214 0.2430365 0.7489184 0.1505694 0.5988107 0.2211756 0.6309794 0.2143452 0.6939214 0.4226447 0.9922327 0.2333443 0.9922327 0.4056469 0.9382751 0.3203063 0.4153456 0.3205433 0.3616636 0.4601211 0.4515197 0.5332289 0.8472988 0.4056469 0.9382751 0.3797932 0.8570657 0.1812884 0.4555758 0.1517578 0.4085309 0.3203063 0.4153456 0.1517578 0.4085309 0.1812884 0.4555758 0.08220386 0.5648865 0.5913546 0.7054325 0.5332289 0.8472988 0.4701856 0.7975122 0.5621992 0.5581622 0.5913546 0.7054325 0.5140005 0.698958 0.4601211 0.4515197 0.4883826 0.405237 0.5621992 0.5581622 0.2333443 0.9922327 0.07792133 0.8894254 0.2491289 0.9369726 0.003902196 0.7209297 0.05892157 0.7130255 0.1209447 0.8521502 0.03237324 0.5420319 0.08220386 0.5648865 0.05892157 0.7130255 0.4056469 0.9382751 0.2491289 0.9369726 0.3797932 0.8570657 0.3211858 0.486189 0.3203063 0.4153456 0.4224276 0.5165492 0.3203063 0.4153456 0.3211858 0.486189 0.2205634 0.5193124 0.1812884 0.4555758 0.2205634 0.5193124 0.1505694 0.5988107 0.4224276 0.5165492 0.4601211 0.4515197 0.4950968 0.5944745 0.2491289 0.9369726 0.1209447 0.8521502 0.2730342 0.8606146 0.05892157 0.7130255 0.1360787 0.703896 0.1821033 0.802074 0.08220386 0.5648865 0.1505694 0.5988107 0.1360787 0.703896 0.3579095 0.7813051 0.4083257 0.7453149 0.3797932 0.8570657 0.5140005 0.698958 0.4701856 0.7975122 0.4083257 0.7453149 0.436616 0.6893157 0.4241631 0.6272006 0.5140005 0.698958 0.8456931 0.8490761 0.9083282 0.8589368 0.9418607 0.8922712 0.9456308 0.8862782 0.8152253 0.8814406 0.912045 0.8456497 0.8400896 0.853868 0.9048375 0.86355 0.9375085 0.8960197 0.9409043 0.8925775 0.8059157 0.8811004 0.9046934 0.8479667 0.8059157 0.8811004 0.7823756 0.5883173 0.8417929 0.8504246 0.8417929 0.8504246 0.822305 0.5946436 0.9046934 0.8479667 0.7878908 0.5881883 0.805864 0.8889923 0.6933081 0.8960197 0.9802959 0.5943813 0.9418607 0.8922712 0.9083282 0.8589368 0.810121 0.8857956 0.7926222 0.5890145 0.8456931 0.8490761 0.6964558 0.8898121 0.6729158 0.5970289 0.8059157 0.8811004 0.9722852 0.5883173 0.9409043 0.8925775 0.9046934 0.8479667 0.8152253 0.8814406 0.8010867 0.5872486 0.8513025 0.8511061 0.9870038 0.5967009 0.9456308 0.8862782 0.912045 0.8456497 0.6991676 0.892271 0.6816685 0.5954899 0.810121 0.8857956 0.7052479 0.8862782 0.6911095 0.5920861 0.8152253 0.8814406 0.805864 0.8889923 0.7878908 0.5881883 0.8400896 0.853868</float_array>
          <technique_common>
            <accessor source="#OlympicTorch-mesh-map-0-array" count="558" stride="2">
              <param name="S" type="float"/>
              <param name="T" type="float"/>
            </accessor>
          </technique_common>
        </source>
        <vertices id="OlympicTorch-mesh-vertices">
          <input semantic="POSITION" source="#OlympicTorch-mesh-positions"/>
        </vertices>
        <polylist count="186">
          <input semantic="VERTEX" source="#OlympicTorch-mesh-vertices" offset="0"/>
          <input semantic="NORMAL" source="#OlympicTorch-mesh-normals" offset="1"/>
          <input semantic="TEXCOORD" source="#OlympicTorch-mesh-map-0" offset="2" set="0"/>
          <vcount>3 3 3 3 3 3 3 3 3 3 3 3 3 3 3 3 3 3 3 3 3 3 3 3 3 3 3 3 3 3 3 3 3 3 3 3 3 3 3 3 3 3 3 3 3 3 3 3 3 3 3 3 3 3 3 3 3 3 3 3 3 3 3 3 3 3 3 3 3 3 3 3 3 3 3 3 3 3 3 3 3 3 3 3 3 3 3 3 3 3 3 3 3 3 3 3 3 3 3 3 3 3 3 3 3 3 3 3 3 3 3 3 3 3 3 3 3 3 3 3 3 3 3 3 3 3 3 3 3 3 3 3 3 3 3 3 3 3 3 3 3 3 3 3 3 3 3 3 3 3 3 3 3 3 3 3 3 3 3 3 3 3 3 3 3 3 3 3 3 3 3 3 3 3 3 3 3 3 3 3 3 3 3 3 3 3 </vcount>
          <p>70 0 0 68 0 1 89 0 2 13 1 3 73 1 4 78 1 5 18 2 6 68 2 7 20 2 8 69 3 9 15 3 10 88 3 11 21 4 12 77 4 13 70 4 14 16 5 15 71 5 16 77 5 17 15 6 18 69 6 19 71 6 20 75 7 21 69 7 22 88 7 23 12 8 24 72 8 25 17 8 26 22 9 27 76 9 28 13 9 29 74 10 30 76 10 31 93 10 32 65 11 33 42 11 34 41 11 35 33 12 36 13 12 37 14 12 38 24 13 39 14 13 40 12 13 41 32 14 42 17 14 43 26 14 44 23 15 45 12 15 46 32 15 47 26 16 48 15 16 49 31 16 50 30 17 51 21 17 52 19 17 53 31 18 54 16 18 55 21 18 56 28 19 57 18 19 58 20 19 59 29 20 60 19 20 61 18 20 62 27 21 63 20 21 64 25 21 65 25 22 66 22 22 67 33 22 68 0 23 69 33 23 70 24 23 71 1 24 72 24 24 73 23 24 74 3 25 75 32 25 76 4 25 77 2 26 78 23 26 79 3 26 80 4 27 81 26 27 82 6 27 83 7 28 84 30 28 85 29 28 86 6 29 87 31 29 88 30 29 89 9 30 90 28 30 91 27 30 92 8 31 93 29 31 94 28 31 95 10 32 96 27 32 97 11 32 98 11 33 99 25 33 100 0 33 101 57 34 102 64 34 103 40 34 104 48 35 105 6 35 106 47 35 107 60 36 108 57 36 109 45 36 110 61 37 111 60 37 112 45 37 113 51 38 114 4 38 115 48 38 116 52 39 117 3 39 118 51 39 119 64 40 120 63 40 121 40 40 122 66 41 123 44 41 124 65 41 125 66 42 126 67 42 127 44 42 128 67 43 129 61 43 130 35 43 131 45 44 132 39 44 133 34 44 134 34 45 135 37 45 136 43 45 137 40 46 138 38 46 139 34 46 140 44 47 141 35 47 142 34 47 143 42 48 144 34 48 145 41 48 146 34 49 147 43 49 148 41 49 149 36 50 150 45 50 151 34 50 152 34 51 153 38 51 154 37 51 155 44 52 156 34 52 157 42 52 158 35 53 159 36 53 160 34 53 161 39 54 162 40 54 163 34 54 164 8 55 165 54 55 166 47 55 167 1 56 168 2 56 169 53 56 170 59 57 171 48 57 172 58 57 173 0 58 174 1 58 175 46 58 176 11 59 177 0 59 178 50 59 179 62 60 180 51 60 181 59 60 182 63 61 183 52 61 184 62 61 185 2 62 186 3 62 187 52 62 188 9 63 189 55 63 190 54 63 191 9 64 192 10 64 193 55 64 194 10 65 195 11 65 196 56 65 197 54 66 198 65 66 199 58 66 200 46 67 201 53 67 202 64 67 203 49 68 204 46 68 205 60 68 206 50 69 207 49 69 208 61 69 209 53 70 210 52 70 211 63 70 212 55 71 213 66 71 214 65 71 215 55 72 216 56 72 217 66 72 218 56 73 219 50 73 220 67 73 221 43 74 222 59 74 223 58 74 224 37 75 225 62 75 226 43 75 227 38 76 228 63 76 229 62 76 230 73 77 231 5 77 232 78 77 233 70 78 234 5 78 235 68 78 236 71 79 237 5 79 238 77 79 239 75 80 240 5 80 241 69 80 242 76 81 243 5 81 244 73 81 245 74 82 246 5 82 247 76 82 248 68 83 249 5 83 250 74 83 251 77 84 252 5 84 253 70 84 254 69 85 255 5 85 256 71 85 257 72 86 258 5 86 259 75 86 260 78 87 261 5 87 262 72 87 263 85 88 264 91 88 265 86 88 266 84 89 267 89 89 268 87 89 269 82 90 270 92 90 271 81 90 272 80 91 273 94 91 274 90 91 275 14 92 276 78 92 277 94 92 278 78 93 279 72 93 280 90 93 281 15 94 282 17 94 283 81 94 284 76 95 285 22 95 286 93 95 287 20 96 288 74 96 289 91 96 290 12 97 291 14 97 292 80 97 293 72 98 294 12 98 295 90 98 296 19 99 297 70 99 298 89 99 299 68 100 300 18 100 301 87 100 302 22 101 303 20 101 304 85 101 305 18 102 306 19 102 307 84 102 308 17 103 309 75 103 310 92 103 311 68 104 312 87 104 313 89 104 314 14 105 315 13 105 316 78 105 317 68 106 318 74 106 319 20 106 320 15 107 321 81 107 322 88 107 323 19 108 324 21 108 325 70 108 326 21 109 327 16 109 328 77 109 329 16 110 330 15 110 331 71 110 332 92 111 333 75 111 334 88 111 335 72 112 336 75 112 337 17 112 338 76 113 339 73 113 340 13 113 341 91 114 342 74 114 343 93 114 344 58 115 345 65 115 346 41 115 347 24 116 348 33 116 349 14 116 350 23 117 351 24 117 352 12 117 353 17 118 354 15 118 355 26 118 356 12 119 357 17 119 358 32 119 359 15 120 360 16 120 361 31 120 362 29 121 363 30 121 364 19 121 365 30 122 366 31 122 367 21 122 368 27 123 369 28 123 370 20 123 371 28 124 372 29 124 373 18 124 374 20 125 375 22 125 376 25 125 377 22 126 378 13 126 379 33 126 380 1 127 381 0 127 382 24 127 383 2 128 384 1 128 385 23 128 386 32 129 387 26 129 388 4 129 389 23 130 390 32 130 391 3 130 392 26 131 393 31 131 394 6 131 395 8 132 396 7 132 397 29 132 398 7 133 399 6 133 400 30 133 401 10 134 402 9 134 403 27 134 404 9 135 405 8 135 406 28 135 407 27 136 408 25 136 409 11 136 410 25 137 411 33 137 412 0 137 413 39 138 414 57 138 415 40 138 416 6 139 417 7 139 418 47 139 419 57 140 420 39 140 421 45 140 422 36 141 423 61 141 424 45 141 425 4 142 426 6 142 427 48 142 428 3 143 429 4 143 430 51 143 431 63 144 432 38 144 433 40 144 434 44 145 435 42 145 436 65 145 437 67 146 438 35 146 439 44 146 440 61 147 441 36 147 442 35 147 443 7 148 444 8 148 445 47 148 446 46 149 447 1 149 448 53 149 449 48 150 450 47 150 451 58 150 452 49 151 453 0 151 454 46 151 455 0 152 456 49 152 457 50 152 458 51 153 459 48 153 460 59 153 461 52 154 462 51 154 463 62 154 464 53 155 465 2 155 466 52 155 467 8 156 468 9 156 469 54 156 470 10 157 471 56 157 472 55 157 473 11 158 474 50 158 475 56 158 476 47 159 477 54 159 478 58 159 479 57 160 480 46 160 481 64 160 482 46 161 483 57 161 484 60 161 485 49 162 486 60 162 487 61 162 488 64 163 489 53 163 490 63 163 491 54 164 492 55 164 493 65 164 494 56 165 495 67 165 496 66 165 497 50 166 498 61 166 499 67 166 500 41 167 501 43 167 502 58 167 503 62 168 504 59 168 505 43 168 506 37 169 507 38 169 508 62 169 509 91 170 510 93 170 511 86 170 512 83 171 513 84 171 514 87 171 515 92 172 516 88 172 517 81 172 518 79 173 519 80 173 520 90 173 521 80 174 522 14 174 523 94 174 524 94 175 525 78 175 526 90 175 527 17 176 528 82 176 529 81 176 530 22 177 531 86 177 532 93 177 533 85 178 534 20 178 535 91 178 536 79 179 537 12 179 538 80 179 539 12 180 540 79 180 541 90 180 542 84 181 543 19 181 544 89 181 545 18 182 546 83 182 547 87 182 548 86 183 549 22 183 550 85 183 551 83 184 552 18 184 553 84 184 554 82 185 555 17 185 556 92 185 557</p>
        </polylist>
      </mesh>
      <extra><technique profile="MAYA"><double_sided>1</double_sided></technique></extra>
    </geometry>
  </library_geometries>
  <library_controllers/>
  <library_visual_scenes>
    <visual_scene id="Scene" name="Scene">
      <node id="OlympicTorch" name="OlympicTorch" type="NODE">
        <matrix sid="transform">-1 1.27952e-6 0 0 -1.27952e-6 -1 0 0 0 0 1 0 0 0 0 1</matrix>
        <instance_geometry url="#OlympicTorch-mesh"/>
      </node>
    </visual_scene>
  </library_visual_scenes>
  <scene>
    <instance_visual_scene url="#Scene"/>
  </scene>
</COLLADA>