<?xml version="1.0" encoding="utf-8"?>
<COLLADA xmlns="http://www.collada.org/2005/11/COLLADASchema" version="1.4.1">
  <asset>
    <contributor>
      <author>Blender User</author>
      <authoring_tool>Blender 2.69.0 r60995</authoring_tool>
    </contributor>
    <created>2015-07-07T13:34:46</created>
    <modified>2015-07-07T13:34:46</modified>
    <unit name="meter" meter="1"/>
    <up_axis>Z_UP</up_axis>
  </asset>
  <library_cameras>
    <camera id="Camera-camera" name="Camera">
      <optics>
        <technique_common>
          <perspective>
            <xfov sid="xfov">49.13434</xfov>
            <aspect_ratio>1.777778</aspect_ratio>
            <znear sid="znear">0.1</znear>
            <zfar sid="zfar">100</zfar>
          </perspective>
        </technique_common>
      </optics>
      <extra>
        <technique profile="blender">
          <YF_dofdist>0</YF_dofdist>
          <shiftx>0</shiftx>
          <shifty>0</shifty>
        </technique>
      </extra>
    </camera>
  </library_cameras>
  <library_lights>
    <light id="Lamp-light" name="Lamp">
      <technique_common>
        <point>
          <color sid="color">1 1 1</color>
          <constant_attenuation>1</constant_attenuation>
          <linear_attenuation>0</linear_attenuation>
          <quadratic_attenuation>0.00111109</quadratic_attenuation>
        </point>
      </technique_common>
      <extra>
        <technique profile="blender">
          <adapt_thresh>0.000999987</adapt_thresh>
          <area_shape>1</area_shape>
          <area_size>0.1</area_size>
          <area_sizey>0.1</area_sizey>
          <area_sizez>1</area_sizez>
          <atm_distance_factor>1</atm_distance_factor>
          <atm_extinction_factor>1</atm_extinction_factor>
          <atm_turbidity>2</atm_turbidity>
          <att1>0</att1>
          <att2>1</att2>
          <backscattered_light>1</backscattered_light>
          <bias>1</bias>
          <blue>1</blue>
          <buffers>1</buffers>
          <bufflag>0</bufflag>
          <bufsize>2880</bufsize>
          <buftype>2</buftype>
          <clipend>30.002</clipend>
          <clipsta>1.000799</clipsta>
          <compressthresh>0.04999995</compressthresh>
          <dist sid="blender_dist">29.99998</dist>
          <energy sid="blender_energy">1</energy>
          <falloff_type>2</falloff_type>
          <filtertype>0</filtertype>
          <flag>0</flag>
          <gamma sid="blender_gamma">1</gamma>
          <green>1</green>
          <halo_intensity sid="blnder_halo_intensity">1</halo_intensity>
          <horizon_brightness>1</horizon_brightness>
          <mode>8192</mode>
          <ray_samp>1</ray_samp>
          <ray_samp_method>1</ray_samp_method>
          <ray_samp_type>0</ray_samp_type>
          <ray_sampy>1</ray_sampy>
          <ray_sampz>1</ray_sampz>
          <red>1</red>
          <samp>3</samp>
          <shadhalostep>0</shadhalostep>
          <shadow_b sid="blender_shadow_b">0</shadow_b>
          <shadow_g sid="blender_shadow_g">0</shadow_g>
          <shadow_r sid="blender_shadow_r">0</shadow_r>
          <shadspotsize>45</shadspotsize>
          <sky_colorspace>0</sky_colorspace>
          <sky_exposure>1</sky_exposure>
          <skyblendfac>1</skyblendfac>
          <skyblendtype>1</skyblendtype>
          <soft>3</soft>
          <spotblend>0.15</spotblend>
          <spotsize>75</spotsize>
          <spread>1</spread>
          <sun_brightness>1</sun_brightness>
          <sun_effect_type>0</sun_effect_type>
          <sun_intensity>1</sun_intensity>
          <sun_size>1</sun_size>
          <type>0</type>
        </technique>
      </extra>
    </light>
  </library_lights>
  <library_images/>
  <library_effects>
    <effect id="Material-effect">
      <profile_COMMON>
        <technique sid="common">
          <phong>
            <emission>
              <color sid="emission">0 0 0 1</color>
            </emission>
            <ambient>
              <color sid="ambient">0 0 0 1</color>
            </ambient>
            <diffuse>
              <color sid="diffuse">0.64 0.64 0.64 1</color>
            </diffuse>
            <specular>
              <color sid="specular">0.5 0.5 0.5 1</color>
            </specular>
            <shininess>
              <float sid="shininess">50</float>
            </shininess>
            <index_of_refraction>
              <float sid="index_of_refraction">1</float>
            </index_of_refraction>
          </phong>
        </technique>
        <extra>
          <technique profile="GOOGLEEARTH">
            <double_sided>1</double_sided>
          </technique>
        </extra>
      </profile_COMMON>
      <extra><technique profile="MAX3D"><double_sided>1</double_sided></technique></extra>
    </effect>
  </library_effects>
  <library_materials>
    <material id="Material-material" name="Material">
      <instance_effect url="#Material-effect"/>
    </material>
  </library_materials>
  <library_geometries>
    <geometry id="Cube-mesh" name="Cube">
      <mesh>
        <source id="Cube-mesh-positions">
          <float_array id="Cube-mesh-positions-array" count="78">0.08636337 0.0582211 -1 0.08636337 -0.05822116 -1 -0.08636331 -0.05822116 -1 -0.08636325 0.05822116 -1 -1.31909e-7 0 1 0.1012682 0 -1 0 0.07350403 -1 0.1434716 0.08206427 0.5791503 0 -0.07350403 -1 0.1451373 -0.08206439 0.5791503 -0.1012681 0 -1 -0.1451376 -0.07646763 0.5791503 -0.1434717 0.07646757 0.5791503 0 0 -1 0.2862412 0 0.5791503 0 -0.08775204 0.5791503 -0.2862412 0 0.5791503 0 0.08775198 0.5791503 0.2838885 0.08206427 -0.6345393 0.2871845 -0.08206433 -0.6345393 -0.2871847 -0.07646763 -0.6345393 -0.2838883 0.07646763 -0.6345393 0.4333132 0 -0.6318826 0 -0.111969 -0.6797533 -0.4333132 0 -0.6318826 0 0.1119689 -0.6797533</float_array>
          <technique_common>
            <accessor source="#Cube-mesh-positions-array" count="26" stride="3">
              <param name="X" type="float"/>
              <param name="Y" type="float"/>
              <param name="Z" type="float"/>
            </accessor>
          </technique_common>
        </source>
        <source id="Cube-mesh-normals">
          <float_array id="Cube-mesh-normals-array" count="144">0 0 -1 -0.1417099 0.9828442 -0.1180498 0 0 -1 0 0 -1 0 0 -1 0.5018107 -0.862828 0.06094157 0.4798803 0.8755754 0.05551934 -0.07750189 -0.9968078 0.01917511 0.101709 -0.994743 0.0119037 -0.4713699 0.8800758 0.05724471 -0.462195 -0.8851268 0.05409407 0.172107 0.9725716 -0.1564726 -0.07839602 0.9967379 0.0191738 0.7294885 -0.1867514 -0.6580048 0.4626896 0.8326228 -0.304397 -0.1401156 -0.9830694 -0.1180769 0.1720646 -0.9723345 -0.1579862 -0.7294884 0.1867514 -0.6580049 -0.44805 -0.8461952 -0.2884526 0.1028776 0.9946228 0.01190233 0.475703 -0.8179377 0.3235499 -0.07589358 -0.9761223 0.2035328 -0.4495339 0.8393067 0.3057508 0.4719682 0.821096 0.3210096 0.03833496 -0.9782261 0.2039715 -0.4532532 -0.836376 0.3082803 -0.07676935 0.9760566 0.2035191 0.03877991 0.9782091 0.203968 0 0 -1 -0.1724898 0.9747376 -0.1418936 0 0 -1 0 0 -1 0 0 -1 0.4880688 -0.8709338 0.05712229 0.4974324 0.8653968 0.0604099 -0.1204857 -0.9926148 0.01410132 0.03915095 -0.9990485 0.0192182 -0.4541895 0.8893542 0.05254703 -0.4756633 -0.8777286 0.05776613 0.1226481 0.985368 -0.1183529 -0.1218639 0.9924466 0.01409894 0.469536 -0.8259872 -0.3118991 0.7294885 0.1867515 -0.6580048 -0.1724519 -0.9745213 -0.1434178 0.121261 -0.9855372 -0.1183732 -0.4411593 0.8523041 -0.280992 -0.7294886 -0.1867508 -0.6580051 0.03960531 0.9990306 0.0192179</float_array>
          <technique_common>
            <accessor source="#Cube-mesh-normals-array" count="48" stride="3">
              <param name="X" type="float"/>
              <param name="Y" type="float"/>
              <param name="Z" type="float"/>
            </accessor>
          </technique_common>
        </source>
        <vertices id="Cube-mesh-vertices">
          <input semantic="POSITION" source="#Cube-mesh-positions"/>
        </vertices>
        <polylist material="Material-material" count="48">
          <input semantic="VERTEX" source="#Cube-mesh-vertices" offset="0"/>
          <input semantic="NORMAL" source="#Cube-mesh-normals" offset="1"/>
          <vcount>3 3 3 3 3 3 3 3 3 3 3 3 3 3 3 3 3 3 3 3 3 3 3 3 3 3 3 3 3 3 3 3 3 3 3 3 3 3 3 3 3 3 3 3 3 3 3 3 </vcount>
          <p>13 0 8 0 10 0 25 1 6 1 21 1 6 2 13 2 10 2 0 3 5 3 6 3 5 4 1 4 8 4 22 5 14 5 9 5 18 6 7 6 22 6 23 7 15 7 11 7 19 8 9 8 23 8 24 9 16 9 12 9 20 10 11 10 24 10 18 11 0 11 6 11 17 12 25 12 12 12 5 13 22 13 1 13 0 14 18 14 22 14 8 15 23 15 20 15 1 16 19 16 8 16 10 17 24 17 3 17 2 18 20 18 24 18 7 19 18 19 25 19 14 20 4 20 9 20 15 21 4 21 11 21 16 22 4 22 12 22 7 23 4 23 14 23 9 24 4 24 15 24 11 25 4 25 16 25 4 26 17 26 12 26 4 27 7 27 17 27 8 28 2 28 10 28 6 29 3 29 21 29 3 30 6 30 10 30 5 31 13 31 6 31 13 32 5 32 8 32 19 33 22 33 9 33 7 34 14 34 22 34 20 35 23 35 11 35 9 36 15 36 23 36 21 37 24 37 12 37 11 38 16 38 24 38 25 39 18 39 6 39 25 40 21 40 12 40 22 41 19 41 1 41 5 42 0 42 22 42 2 43 8 43 20 43 19 44 23 44 8 44 24 45 21 45 3 45 10 46 2 46 24 46 17 47 7 47 25 47</p>
        </polylist>
      </mesh>
      <extra><technique profile="MAYA"><double_sided>1</double_sided></technique></extra>
    </geometry>
  </library_geometries>
  <library_controllers/>
  <library_visual_scenes>
    <visual_scene id="Scene" name="Scene">
      <node id="Camera" name="Camera" type="NODE">
        <matrix sid="transform">0.6858805 -0.3173701 0.6548619 7.481132 0.7276338 0.3124686 -0.6106656 -6.50764 -0.01081678 0.8953432 0.4452454 5.343665 0 0 0 1</matrix>
        <instance_camera url="#Camera-camera"/>
      </node>
      <node id="Lamp" name="Lamp" type="NODE">
        <matrix sid="transform">-0.2908646 -0.7711008 0.5663932 4.076245 0.9551712 -0.1998834 0.2183912 1.005454 -0.05518906 0.6045247 0.7946723 5.903862 0 0 0 1</matrix>
        <instance_light url="#Lamp-light"/>
      </node>
      <node id="Cube" name="Cube" type="NODE">
        <matrix sid="transform">1 0 0 0 0 1 0 0 0 0 1 0.9766074 0 0 0 1</matrix>
        <instance_geometry url="#Cube-mesh">
          <bind_material>
            <technique_common>
              <instance_material symbol="Material-material" target="#Material-material"/>
            </technique_common>
          </bind_material>
        </instance_geometry>
      </node>
    </visual_scene>
  </library_visual_scenes>
  <scene>
    <instance_visual_scene url="#Scene"/>
  </scene>
</COLLADA>