<?xml version="1.0" encoding="utf-8"?>
<COLLADA xmlns="http://www.collada.org/2005/11/COLLADASchema" version="1.4.1">
  <asset>
    <contributor>
      <author>Blender User</author>
      <authoring_tool>Blender 2.69.0 r60995</authoring_tool>
    </contributor>
    <created>2015-06-27T12:12:31</created>
    <modified>2015-06-27T12:12:31</modified>
    <unit name="meter" meter="1"/>
    <up_axis>Z_UP</up_axis>
  </asset>
  <library_images/>
  <library_geometries>
    <geometry id="Tree1-mesh" name="Tree1">
      <mesh>
        <source id="Tree1-mesh-positions">
          <float_array id="Tree1-mesh-positions-array" count="210">0.05115437 0.9345405 -0.1334023 0 0.5 10.18159 0.7083836 0.5946457 -0.1132175 0.3909158 0.3117449 10.36943 0.8751865 -0.2021875 -0.155735 0.487464 -0.1112604 10.55669 0.4072716 -0.7783149 -0.2258163 0.2169418 -0.4504845 10.85645 -0.4092025 -0.8270552 -0.2109863 -0.2169418 -0.4504844 10.40658 -0.95783 -0.2214871 -0.1587167 -0.4757886 -0.05335366 10.89152 -0.7483478 0.5912939 -0.1095182 -0.3792405 0.3696517 10.9685 -0.04110544 0.5209594 2.428977 0.08162546 0.4938666 4.193103 -0.1650601 0.4419046 6.053516 -0.07925122 0.3781304 8.435499 0.2612156 0.234901 8.435498 0.3496591 0.3467948 6.053516 0.4205152 0.2416891 4.231657 0.4073024 0.3248128 2.33269 0.3909116 -0.1357395 8.515924 0.4810237 -0.04115158 6.160983 0.4992548 -0.1492872 4.155046 0.559383 -0.1159244 2.205825 0.1504251 -0.4372999 8.435498 0.2963949 -0.3841135 6.212124 0.09218323 -0.443678 4.193103 0.2260357 -0.4693682 2.145097 -0.2352849 -0.4372998 8.322463 -0.07408648 -0.4565775 6.053516 -0.284687 -0.4103667 4.299676 -0.2260358 -0.4693682 2.33269 -0.4757713 -0.1357395 8.435498 -0.3879587 -0.2482084 5.97731 -0.456228 -0.08519899 4.193103 -0.5078979 -0.2014663 2.247459 -0.3899428 0.2403001 8.378745 -0.4286795 0.2192746 6.253386 -0.3492083 0.2804603 4.143325 -0.3303875 0.3763285 2.33269 0.4424521 0.3522298 0.8538385 0.5937909 -0.1310603 0.808265 0.2555485 -0.5306522 0.7851718 -0.2555486 -0.5306522 0.856508 -0.5541039 -0.1284721 0.8214514 -0.3906004 0.3546581 0.8504295 -0.01563119 0.5889795 0.893123 -0.6522685 -0.1732186 0.5988503 -0.4109992 -0.3978095 -0.04929113 -0.5482537 0.1516656 -0.04929113 -0.5237679 0.124482 0.3895368 -0.3943148 -0.3589094 0.3617697 -0.5220987 0.4488804 0.6299226 -0.2075482 0.5307673 -0.04929113 0.6826078 -0.153295 0.6282063 -0.2837812 -0.585452 0.6843624 0.076065 -0.5682566 -0.04929113 -0.2181066 0.5082252 0.4316224 0.2978832 -0.628632 0.5649619 0.4403032 -0.357187 -0.04929113 0.0504744 -0.5500413 0.3848438 0.5496563 0.1455204 -0.04929113 0.4096546 -0.3690774 0.3603319 0.5430451 0.4342054 0.637927 0.2731234 0.499188 -0.04929113 0.5404502 0.1367627 0.4141172 -0.01184391 0.696013 0.680934 0.2425162 0.4915049 0.4362254</float_array>
          <technique_common>
            <accessor source="#Tree1-mesh-positions-array" count="70" stride="3">
              <param name="X" type="float"/>
              <param name="Y" type="float"/>
              <param name="Z" type="float"/>
            </accessor>
          </technique_common>
        </source>
        <source id="Tree1-mesh-normals">
          <float_array id="Tree1-mesh-normals-array" count="357">0.4643475 0.8817909 -0.08262062 0.978855 0.1909954 -0.07323646 0.7689831 -0.6386235 -0.02872163 0.001608788 -0.9999836 -0.005490124 -0.8355774 -0.5493593 0.003878831 -0.7003248 -0.6744846 -0.2337001 -0.3983733 0.916162 -0.04411351 -0.9746029 0.2238141 -0.007514536 0.4617977 0.8857452 0.04688751 0.3982701 0.917167 -0.01362228 0.5866108 0.8036429 0.100229 0.3877471 0.9217035 0.01070898 0.954681 0.2962936 0.02818417 0.9459514 0.324219 0.007610201 0.9809713 0.1922573 0.0270605 0.9391712 0.3396677 0.05082756 0.7622789 -0.6467353 0.02577149 0.5862605 -0.8101116 0.004218697 0.8820944 -0.4698908 0.03334766 0.7811955 -0.6242678 0.004818379 0.01884704 -0.9987902 0.04541867 -0.08611661 -0.9962613 0.00686872 -0.07753264 -0.9962943 0.0372343 0.1963014 -0.9804866 -0.010567 -0.8039711 -0.5932738 0.04070335 -0.6891176 -0.7246487 0.001188516 -0.8930097 -0.4397565 0.09564536 -0.7900365 -0.61094 -0.05093777 -0.4485546 0.8937406 0.005154907 -0.4474135 0.8933098 0.04264765 -0.4447015 0.8956314 0.009221911 -0.6433661 0.7655473 0.004152655 -0.9567796 0.2872003 0.04570305 -0.9593862 0.2819638 0.008628547 -0.9942201 -0.1034855 0.02858722 -0.9753956 0.215878 -0.04472059 0.9916534 -0.1075736 0.0710743 0.1496409 -0.9874625 0.05025249 -0.6855913 0.7277372 0.01905941 -0.9376575 0.2100299 -0.2769222 -0.9859385 -0.06250661 0.1549782 -0.9979678 -0.03454279 0.05354505 -0.05667269 0.9770129 0.2055093 -0.3795328 -0.9172164 0.1211149 -0.4706198 -0.8361989 0.2815818 0.3637676 -0.9198605 0.1467305 -0.7910543 0.5415312 0.2845647 -0.323738 -0.9406159 0.1021537 0.38287 0.8648274 -0.3247835 0.8552315 0.4757546 0.2055155 -0.3842735 0.8617709 -0.331187 0.9240697 0.2246327 -0.3092499 0.7584257 -0.5723714 -0.3117398 0.8898408 0.4555134 0.02628612 0.1701534 0.9850661 0.02631473 0.9396424 -0.3121333 0.1401599 0.3870108 0.919954 -0.06250894 0.9460062 0.3204841 -0.04860132 0.7848196 -0.6192225 -0.02493554 0.006619274 -0.9999577 -0.006384193 -0.7777941 -0.6281662 0.02106595 -0.7396968 -0.5966375 0.3112431 -0.7422659 -0.5134859 0.4305502 -0.407276 0.9121869 -0.04518115 -0.9751336 0.221506 -0.007033765 0.4054071 0.9137498 0.0265761 0.5944182 0.8035568 0.03103828 0.1814801 0.9821428 -0.04960304 0.1814497 0.9819781 0.0528658 0.9468661 0.3210157 0.01983511 0.9810175 0.1909987 0.03353089 0.9478549 0.3185871 -0.008559703 0.941779 0.3325843 0.04939579 0.7226679 -0.6896118 0.0467599 0.7215477 -0.6901112 0.05581527 0.5834907 -0.8113619 -0.03507995 0.8824471 -0.468084 0.04673749 0.005773246 -0.9991275 0.04136347 0.0125963 -0.9994598 0.03035533 0.2127971 -0.9757508 -0.05126202 -0.002439081 -0.9999623 0.008322715 -0.68647 -0.7270041 -0.01497048 -0.8900941 -0.4529474 0.05070501 -0.5427843 -0.8380168 -0.05579459 -0.5560485 -0.8309516 0.01815491 -0.5320696 0.8462157 0.02865219 -0.4588117 0.8873654 0.04554748 -0.6736024 0.7358882 -0.06876415 -0.4111742 0.9107137 0.03919523 -0.9472987 0.318561 0.03382408 -0.9561212 0.2929181 0.005570709 -0.9603853 0.277252 -0.02813142 -0.9950076 -0.09795367 0.019104 0.9470746 -0.2650039 0.1811704 0.4146426 -0.8914999 0.1824811 -0.8286645 0.5512151 0.09734976 -0.8972189 0.2833257 0.3387106 -0.8215277 0.1443481 0.551594 -0.9327006 -0.353531 0.07131284 -0.9015173 -0.3826265 0.2021477 0.1057159 0.9931945 0.04887539 -0.534065 -0.845434 0.003991365 0.006302356 -0.9989601 0.04515415 0.3132911 -0.9185608 0.2410281 0.6064468 -0.7948111 0.0223037 -0.6831814 0.7255093 0.08306264 -0.423223 -0.8772319 0.2265981 0.4142326 0.8096439 0.4157982 0.4331813 0.7569778 0.4892223 0.6563436 0.7525781 0.0532853 -0.4808162 0.6653738 0.5710459 -0.4315758 0.8084853 0.4001174 0.8582632 0.1960358 0.4742934 0.8823912 0.2380425 0.4058591 0.6811743 -0.6059858 0.4108316 0.6875002 -0.6051471 0.4014229 0.7439247 0.6529975 0.1420226 -0.1880314 0.9681358 0.1653997 0.9995392 -0.02332931 0.01941603</float_array>
          <technique_common>
            <accessor source="#Tree1-mesh-normals-array" count="119" stride="3">
              <param name="X" type="float"/>
              <param name="Y" type="float"/>
              <param name="Z" type="float"/>
            </accessor>
          </technique_common>
        </source>
        <source id="Tree1-mesh-map-0">
          <float_array id="Tree1-mesh-map-0-array" count="714">0.4967738 0.7903053 0.4899599 0.8931135 0.3775669 0.9445269 0.3858468 0.8097772 0.3775669 0.9445269 0.2353972 0.9795922 0.2451388 0.8041032 0.2341972 0.9799922 0.0869314 0.9818642 0.9263454 0.780808 0.9265308 0.9916149 0.8173392 0.7837693 0.8173392 0.7837693 0.8201941 0.9530476 0.7317922 0.9900142 0.7683864 0.06046587 0.8233768 0.09559643 0.7102386 0.07620251 0.5911506 0.8103708 0.625537 0.9924648 0.4967738 0.7903053 0.6715965 0.8124005 0.7317922 0.9900142 0.625537 0.9924648 0.4930654 0.1619528 0.4939585 0.3016111 0.3588058 0.1663284 0.4939585 0.3016111 0.4932104 0.4393858 0.3750578 0.3035377 0.4932104 0.4393858 0.5054774 0.6163925 0.3747406 0.449273 0.5054774 0.6163925 0.4967738 0.7903053 0.3858468 0.8097772 0.3588058 0.1663284 0.3750578 0.3035377 0.2167649 0.1682473 0.3750578 0.3035377 0.3747406 0.449273 0.2266707 0.2855122 0.3747406 0.449273 0.3858993 0.6218193 0.234465 0.4398483 0.3858993 0.6218193 0.3858468 0.8097772 0.2451388 0.8041032 0.2167649 0.1682473 0.2266707 0.2855122 0.09752833 0.1534808 0.2266707 0.2855122 0.234465 0.4398483 0.1004099 0.4300334 0.234465 0.4398483 0.2458713 0.6194038 0.1054248 0.6053426 0.2458713 0.6194038 0.2451388 0.8041032 0.1020992 0.8021623 0.9311813 0.1932486 0.9253181 0.3291935 0.8042398 0.3305527 0.9253181 0.3291935 0.9256801 0.4772861 0.8150795 0.4824164 0.9256801 0.4772861 0.9237889 0.636757 0.8150795 0.4824164 0.9237889 0.636757 0.9263454 0.780808 0.8160647 0.6405784 0.8129104 0.195503 0.8042398 0.3305527 0.688373 0.1765493 0.8042398 0.3305527 0.8150795 0.4824164 0.6904995 0.3136829 0.8150795 0.4824164 0.8160647 0.6405784 0.674947 0.4735069 0.8160647 0.6405784 0.8173392 0.7837693 0.6715965 0.8124005 0.6009922 0.1750734 0.5901375 0.3219159 0.4939585 0.3016111 0.5901375 0.3219159 0.5950259 0.4727796 0.4932104 0.4393858 0.5950259 0.4727796 0.5976602 0.6265663 0.4932104 0.4393858 0.5976602 0.6265663 0.5911506 0.8103708 0.5054774 0.6163925 0.688373 0.1765493 0.6904995 0.3136829 0.5901375 0.3219159 0.6904995 0.3136829 0.674947 0.4735069 0.5950259 0.4727796 0.674947 0.4735069 0.6861864 0.616434 0.5976602 0.6265663 0.6861864 0.616434 0.6715965 0.8124005 0.5911506 0.8103708 0.1563735 0.03089153 0.1623466 0.06739205 0.09108543 0.00929135 0.8892811 0.0137552 0.8827413 0.08008795 0.8233768 0.09559643 0.558373 0.0690236 0.4996614 0.08162236 0.5545663 0.02660274 0.6698732 0.0631681 0.7102386 0.07620251 0.6105082 0.07492399 0.8290109 0.01189053 0.8233768 0.09559643 0.7721736 0.02450013 0.6753054 0.02458137 0.6698732 0.0631681 0.6105082 0.07492399 0.6189502 0.009042024 0.6105082 0.07492399 0.558373 0.0690236 0.09108543 0.00929135 0.09606814 0.08260732 0.04712128 0.06906592 0.9482272 0.1016345 0.9311813 0.1932486 0.8827413 0.08008795 0.2125369 0.01178044 0.2203285 0.08372735 0.1563735 0.03089153 0.7172203 0.006252825 0.7102386 0.07620251 0.6698732 0.0631681 0.7721736 0.02450013 0.7683864 0.06046587 0.7172203 0.006252825 0.4279741 0.05889862 0.4996614 0.08162236 0.3552291 0.07676708 0.4896297 0.009407639 0.4996614 0.08162236 0.426661 0.0158869 0.558373 0.0690236 0.6105082 0.07492399 0.4996614 0.08162236 0.2932556 0.06392443 0.3552291 0.07676708 0.2203285 0.08372735 0.1623466 0.06739205 0.2203285 0.08372735 0.09606814 0.08260732 0.2847254 0.02315229 0.2932556 0.06392443 0.2203285 0.08372735 0.426661 0.0158869 0.4279741 0.05889862 0.3552291 0.07676708 0.3501645 0.008306264 0.3552291 0.07676708 0.2847254 0.02315229 0.3858468 0.8097772 0.4967738 0.7903053 0.3775669 0.9445269 0.2451388 0.8041032 0.3858468 0.8097772 0.2353972 0.9795922 0.1020992 0.8021623 0.2451388 0.8041032 0.0869314 0.9818642 0.9265308 0.9916149 0.8201941 0.9530476 0.8173392 0.7837693 0.6715965 0.8124005 0.8173392 0.7837693 0.7317922 0.9900142 0.8233768 0.09559643 0.8129104 0.195503 0.7102386 0.07620251 0.8129104 0.195503 0.688373 0.1765493 0.7102386 0.07620251 0.625537 0.9924648 0.4899599 0.8931135 0.4967738 0.7903053 0.5911506 0.8103708 0.6715965 0.8124005 0.625537 0.9924648 0.4939585 0.3016111 0.3750578 0.3035377 0.3588058 0.1663284 0.4932104 0.4393858 0.3747406 0.449273 0.3750578 0.3035377 0.5054774 0.6163925 0.3858993 0.6218193 0.3747406 0.449273 0.3858993 0.6218193 0.5054774 0.6163925 0.3858468 0.8097772 0.3750578 0.3035377 0.2266707 0.2855122 0.2167649 0.1682473 0.3747406 0.449273 0.234465 0.4398483 0.2266707 0.2855122 0.3858993 0.6218193 0.2458713 0.6194038 0.234465 0.4398483 0.2458713 0.6194038 0.3858993 0.6218193 0.2451388 0.8041032 0.2266707 0.2855122 0.1015154 0.284286 0.09752833 0.1534808 0.1015154 0.284286 0.2266707 0.2855122 0.1004099 0.4300334 0.1004099 0.4300334 0.234465 0.4398483 0.1054248 0.6053426 0.1054248 0.6053426 0.2458713 0.6194038 0.1020992 0.8021623 0.8129104 0.195503 0.9311813 0.1932486 0.8042398 0.3305527 0.8042398 0.3305527 0.9253181 0.3291935 0.8150795 0.4824164 0.9237889 0.636757 0.8160647 0.6405784 0.8150795 0.4824164 0.9263454 0.780808 0.8173392 0.7837693 0.8160647 0.6405784 0.8042398 0.3305527 0.6904995 0.3136829 0.688373 0.1765493 0.8150795 0.4824164 0.674947 0.4735069 0.6904995 0.3136829 0.8160647 0.6405784 0.6861864 0.616434 0.674947 0.4735069 0.6861864 0.616434 0.8160647 0.6405784 0.6715965 0.8124005 0.4930654 0.1619528 0.6009922 0.1750734 0.4939585 0.3016111 0.4939585 0.3016111 0.5901375 0.3219159 0.4932104 0.4393858 0.5976602 0.6265663 0.5054774 0.6163925 0.4932104 0.4393858 0.5911506 0.8103708 0.4967738 0.7903053 0.5054774 0.6163925 0.6009922 0.1750734 0.688373 0.1765493 0.5901375 0.3219159 0.5901375 0.3219159 0.6904995 0.3136829 0.5950259 0.4727796 0.5950259 0.4727796 0.674947 0.4735069 0.5976602 0.6265663 0.5976602 0.6265663 0.6861864 0.616434 0.5911506 0.8103708 0.1623466 0.06739205 0.09606814 0.08260732 0.09108543 0.00929135 0.8290109 0.01189053 0.8892811 0.0137552 0.8233768 0.09559643 0.4996614 0.08162236 0.4896297 0.009407639 0.5545663 0.02660274 0.7102386 0.07620251 0.688373 0.1765493 0.6009922 0.1750734 0.6105082 0.07492399 0.7102386 0.07620251 0.6009922 0.1750734 0.8233768 0.09559643 0.7683864 0.06046587 0.7721736 0.02450013 0.6189502 0.009042024 0.6753054 0.02458137 0.6105082 0.07492399 0.5545663 0.02660274 0.6189502 0.009042024 0.558373 0.0690236 0.03939938 0.03044968 0.09108543 0.00929135 0.04712128 0.06906592 0.9311813 0.1932486 0.8129104 0.195503 0.8827413 0.08008795 0.8129104 0.195503 0.8233768 0.09559643 0.8827413 0.08008795 0.2203285 0.08372735 0.1623466 0.06739205 0.1563735 0.03089153 0.6753054 0.02458137 0.7172203 0.006252825 0.6698732 0.0631681 0.7683864 0.06046587 0.7102386 0.07620251 0.7172203 0.006252825 0.4996614 0.08162236 0.4930654 0.1619528 0.3552291 0.07676708 0.4930654 0.1619528 0.3588058 0.1663284 0.3552291 0.07676708 0.4996614 0.08162236 0.4279741 0.05889862 0.426661 0.0158869 0.6105082 0.07492399 0.6009922 0.1750734 0.4930654 0.1619528 0.4996614 0.08162236 0.6105082 0.07492399 0.4930654 0.1619528 0.3552291 0.07676708 0.3588058 0.1663284 0.2203285 0.08372735 0.3588058 0.1663284 0.2167649 0.1682473 0.2203285 0.08372735 0.2203285 0.08372735 0.2167649 0.1682473 0.09606814 0.08260732 0.2167649 0.1682473 0.09752833 0.1534808 0.09606814 0.08260732 0.2125369 0.01178044 0.2847254 0.02315229 0.2203285 0.08372735 0.3501645 0.008306264 0.426661 0.0158869 0.3552291 0.07676708 0.3552291 0.07676708 0.2932556 0.06392443 0.2847254 0.02315229</float_array>
          <technique_common>
            <accessor source="#Tree1-mesh-map-0-array" count="357" stride="2">
              <param name="S" type="float"/>
              <param name="T" type="float"/>
            </accessor>
          </technique_common>
        </source>
        <vertices id="Tree1-mesh-vertices">
          <input semantic="POSITION" source="#Tree1-mesh-positions"/>
        </vertices>
        <polylist count="119">
          <input semantic="VERTEX" source="#Tree1-mesh-vertices" offset="0"/>
          <input semantic="NORMAL" source="#Tree1-mesh-normals" offset="1"/>
          <input semantic="TEXCOORD" source="#Tree1-mesh-map-0" offset="2" set="0"/>
          <vcount>3 3 3 3 3 3 3 3 3 3 3 3 3 3 3 3 3 3 3 3 3 3 3 3 3 3 3 3 3 3 3 3 3 3 3 3 3 3 3 3 3 3 3 3 3 3 3 3 3 3 3 3 3 3 3 3 3 3 3 3 3 3 3 3 3 3 3 3 3 3 3 3 3 3 3 3 3 3 3 3 3 3 3 3 3 3 3 3 3 3 3 3 3 3 3 3 3 3 3 3 3 3 3 3 3 3 3 3 3 3 3 3 3 3 3 3 3 3 3 </vcount>
          <p>17 0 0 1 0 1 3 0 2 18 1 3 3 1 4 5 1 5 22 2 6 5 2 7 7 2 8 26 3 9 7 3 10 30 3 11 30 4 12 9 4 13 11 4 14 53 5 15 57 5 16 49 5 17 38 6 18 13 6 19 17 6 20 34 7 21 11 7 22 13 7 23 48 8 24 14 8 25 42 8 26 14 9 27 15 9 28 21 9 29 15 10 30 16 10 31 20 10 32 16 11 33 17 11 34 18 11 35 42 12 36 21 12 37 43 12 38 21 13 39 20 13 40 25 13 41 20 14 42 19 14 43 24 14 44 19 15 45 18 15 46 22 15 47 43 16 48 25 16 49 44 16 50 25 17 51 24 17 52 28 17 53 24 18 54 23 18 55 27 18 56 23 19 57 22 19 58 26 19 59 44 20 60 29 20 61 33 20 62 29 21 63 28 21 64 32 21 65 28 22 66 27 22 67 32 22 68 27 23 69 26 23 70 31 23 71 45 24 72 33 24 73 46 24 74 33 25 75 32 25 76 37 25 77 32 26 78 31 26 79 36 26 80 31 27 81 30 27 82 34 27 83 47 28 84 41 28 85 14 28 86 41 29 87 40 29 88 15 29 89 40 30 90 39 30 91 15 30 92 39 31 93 38 31 94 16 31 95 46 32 96 37 32 97 41 32 98 37 33 99 36 33 100 40 33 101 36 34 102 35 34 103 39 34 104 35 35 105 34 35 106 38 35 107 61 36 108 64 36 109 6 36 110 58 37 111 62 37 112 57 37 113 59 38 114 68 38 115 55 38 116 52 39 117 49 39 118 54 39 119 8 40 120 57 40 121 50 40 122 51 41 123 52 41 124 54 41 125 12 42 126 54 42 127 59 42 128 6 43 129 60 43 130 62 43 131 60 44 132 44 44 133 62 44 134 4 45 135 56 45 136 61 45 137 10 46 138 49 46 139 52 46 140 50 47 141 53 47 142 10 47 143 69 48 144 68 48 145 65 48 146 0 49 147 68 49 148 66 49 149 59 50 150 54 50 151 68 50 152 67 51 153 65 51 154 56 51 155 64 52 156 56 52 157 60 52 158 63 53 159 67 53 160 56 53 161 66 54 162 69 54 163 65 54 164 2 55 165 65 55 166 63 55 167 18 56 168 17 56 169 3 56 170 22 57 171 18 57 172 5 57 173 26 58 174 22 58 175 7 58 176 7 59 177 9 59 178 30 59 179 34 60 180 30 60 181 11 60 182 57 61 183 45 61 184 49 61 185 45 62 186 46 62 187 49 62 188 13 63 189 1 63 190 17 63 191 38 64 192 34 64 193 13 64 194 14 65 195 21 65 196 42 65 197 15 66 198 20 66 199 21 66 200 16 67 201 19 67 202 20 67 203 19 68 204 16 68 205 18 68 206 21 69 207 25 69 208 43 69 209 20 70 210 24 70 211 25 70 212 19 71 213 23 71 214 24 71 215 23 72 216 19 72 217 22 72 218 25 73 219 29 73 220 44 73 221 29 74 222 25 74 223 28 74 224 28 75 225 24 75 226 27 75 227 27 76 228 23 76 229 26 76 230 45 77 231 44 77 232 33 77 233 33 78 234 29 78 235 32 78 236 27 79 237 31 79 238 32 79 239 26 80 240 30 80 241 31 80 242 33 81 243 37 81 244 46 81 245 32 82 246 36 82 247 37 82 248 31 83 249 35 83 250 36 83 251 35 84 252 31 84 253 34 84 254 48 85 255 47 85 256 14 85 257 14 86 258 41 86 259 15 86 260 39 87 261 16 87 262 15 87 263 38 88 264 17 88 265 16 88 266 47 89 267 46 89 268 41 89 269 41 90 270 37 90 271 40 90 272 40 91 273 36 91 274 39 91 275 39 92 276 35 92 277 38 92 278 64 93 279 60 93 280 6 93 281 8 94 282 58 94 283 57 94 284 68 95 285 0 95 286 55 95 287 49 96 288 46 96 289 47 96 290 54 97 291 49 97 292 47 97 293 57 98 294 53 98 295 50 98 296 12 99 297 51 99 298 54 99 299 55 100 300 12 100 301 59 100 302 58 101 303 6 101 304 62 101 305 44 102 306 45 102 307 62 102 308 45 103 309 57 103 310 62 103 311 56 104 312 64 104 313 61 104 314 51 105 315 10 105 316 52 105 317 53 106 318 49 106 319 10 106 320 68 107 321 48 107 322 65 107 323 48 108 324 42 108 325 65 108 326 68 109 327 69 109 328 66 109 329 54 110 330 47 110 331 48 110 332 68 111 333 54 111 334 48 111 335 65 112 336 42 112 337 56 112 338 42 113 339 43 113 340 56 113 341 56 114 342 43 114 343 60 114 344 43 115 345 44 115 346 60 115 347 4 116 348 63 116 349 56 116 350 2 117 351 66 117 352 65 117 353 65 118 354 67 118 355 63 118 356</p>
        </polylist>
      </mesh>
      <extra><technique profile="MAYA"><double_sided>1</double_sided></technique></extra>
    </geometry>
  </library_geometries>
  <library_controllers/>
  <library_visual_scenes>
    <visual_scene id="Scene" name="Scene">
      <node id="Tree1" name="Tree1" type="NODE">
        <matrix sid="transform">1 0 0 0 0 1 0 0 0 0 1 0 0 0 0 1</matrix>
        <instance_geometry url="#Tree1-mesh"/>
      </node>
    </visual_scene>
  </library_visual_scenes>
  <scene>
    <instance_visual_scene url="#Scene"/>
  </scene>
</COLLADA>